waveform/controller_waves.vcd
$date
	Wed May 27 18:05:21 2026
$end
$version
	Icarus Verilog
$end
$timescale
	1ps
$end
$scope module tb_controller $end
$var wire 1 ! shift $end
$var wire 1 " load $end
$var wire 1 # done $end
$var wire 1 $ count_en $end
$var wire 1 % clear $end
$var wire 1 & add_en $end
$var reg 1 ' clk $end
$var reg 1 ( do_add $end
$var reg 1 ) expected_add_en $end
$var reg 1 * expected_clear $end
$var reg 1 + expected_count_en $end
$var reg 1 , expected_done $end
$var reg 1 - expected_load $end
$var reg 1 . expected_shift $end
$var reg 1 / last $end
$var reg 1 0 rst $end
$var reg 1 1 start $end
$scope module dut $end
$var wire 1 ' clk $end
$var wire 1 ( do_add $end
$var wire 1 / last $end
$var wire 1 0 rst $end
$var wire 1 1 start $end
$var parameter 6 2 ADD $end
$var parameter 6 3 CHECK $end
$var parameter 6 4 DONE $end
$var parameter 6 5 IDLE $end
$var parameter 6 6 LOAD $end
$var parameter 6 7 SHIFT $end
$var reg 1 8 add_en $end
$var reg 1 9 clear $end
$var reg 1 : count_en $end
$var reg 1 ; done $end
$var reg 1 < load $end
$var reg 6 = next_state [5:0] $end
$var reg 1 > shift $end
$var reg 6 ? state [5:0] $end
$upscope $end
$scope task apply_inputs $end
$var reg 1 @ do_add_ $end
$var reg 1 A last_ $end
$var reg 1 B rst_ $end
$var reg 1 C start_ $end
$upscope $end
$scope task checker_scoreboard $end
$var reg 1 D expected_add_en $end
$var reg 1 E expected_clear $end
$var reg 1 F expected_count_en $end
$var reg 1 G expected_done $end
$var reg 1 H expected_load $end
$var reg 1 I expected_shift $end
$upscope $end
$upscope $end
$enddefinitions $end
$comment Show the parameter values. $end
$dumpall
b10000 7
b10 6
b1 5
b100000 4
b100 3
b1000 2
$end
#0
$dumpvars
xI
xH
xG
xF
xE
xD
0C
1B
0A
0@
b1 ?
0>
b1 =
0<
0;
0:
09
08
01
10
0/
0.
0-
0,
0+
0*
0)
0(
0'
0&
0%
0$
0#
0"
0!
$end
#5000
1'
#6000
b10 =
11
00
1C
0B
0G
0E
0F
0I
0D
0H
#10000
0'
#15000
1%
19
1"
1<
b100 =
b10 ?
1'
#16000
b100 =
01
0C
1E
1H
1*
1-
#20000
0'
#25000
0%
09
0"
0<
b10000 =
b100 ?
1'
#26000
b1000 =
1(
1@
0E
0H
0*
0-
#30000
0'
#35000
1&
18
b10000 =
b1000 ?
1'
#36000
b10000 =
0(
0@
1D
1)
#40000
0'
#45000
1$
1:
1!
1>
0&
08
b100 =
b10000 ?
1'
#46000
1F
1I
0D
1+
1.
0)
#50000
0'
#55000
0$
0:
0!
0>
b10000 =
b100 ?
1'
#56000
0F
0I
0+
0.
#60000
0'
#65000
1$
1:
1!
1>
b100 =
b10000 ?
1'
#66000
b100000 =
1/
1A
1F
1I
1+
1.
#70000
0'
#75000
1#
1;
0$
0:
0!
0>
b1 =
b100000 ?
1'
#76000
b1 =
0/
0A
1G
0F
0I
1,
0+
0.
#80000
0'
#85000
0#
0;
b1 ?
1'
#86000
0G
0,
